
     Program PWSCF v.6.4.1 starts on 10Nov2019 at 15: 9:30 

     This program is part of the open-source Quantum ESPRESSO suite
     for quantum simulation of materials; please cite
         "P. Giannozzi et al., J. Phys.:Condens. Matter 21 395502 (2009);
         "P. Giannozzi et al., J. Phys.:Condens. Matter 29 465901 (2017);
          URL http://www.quantum-espresso.org", 
     in publications or presentations arising from this work. More details at
     http://www.quantum-espresso.org/quote

     Serial version
     Waiting for input...
     Reading input from standard input

     Current dimensions of program PWSCF are:
     Max number of different atomic species (ntypx) = 10
     Max number of k-points (npk) =  40000
     Max angular momentum in pseudopotentials (lmaxx) =  3
               file Al.pbe-nl-kjpaw_psl.1.0.0.UPF: wavefunction(s)  3S 3P renormalized

     G-vector sticks info
     --------------------
     sticks:   dense  smooth     PW     G-vecs:    dense   smooth      PW
     Sum         301     301    109                 3479     3479     725



     bravais-lattice index     =            2
     lattice parameter (alat)  =       8.6927  a.u.
     unit-cell volume          =     164.2140 (a.u.)^3
     number of atoms/cell      =            1
     number of atomic types    =            1
     number of electrons       =         3.00
     number of Kohn-Sham states=            6
     kinetic-energy cutoff     =      29.0000  Ry
     charge density cutoff     =     116.0000  Ry
     convergence threshold     =      1.0E-05
     mixing beta               =       0.7000
     number of iterations used =            8  plain     mixing
     Exchange-correlation      = SLA PW PBX PBC ( 1  4  3  4 0 0)

     celldm(1)=   8.692740  celldm(2)=   0.000000  celldm(3)=   0.000000
     celldm(4)=   0.000000  celldm(5)=   0.000000  celldm(6)=   0.000000

     crystal axes: (cart. coord. in units of alat)
               a(1) = (  -0.500000   0.000000   0.500000 )  
               a(2) = (   0.000000   0.500000   0.500000 )  
               a(3) = (  -0.500000   0.500000   0.000000 )  

     reciprocal axes: (cart. coord. in units 2 pi/alat)
               b(1) = ( -1.000000 -1.000000  1.000000 )  
               b(2) = (  1.000000  1.000000  1.000000 )  
               b(3) = ( -1.000000  1.000000 -1.000000 )  


     PseudoPot. # 1 for Al read from file:
     ./Al.pbe-nl-kjpaw_psl.1.0.0.UPF
     MD5 check sum: 8cf6d98cc7ef3f4b729b574060f3a10f
     Pseudo is Projector augmented-wave + core cor, Zval =  3.0
     Generated using "atomic" code by A. Dal Corso v.6.3
     Shape of augmentation charge: PSQ
     Using radial grid of 1135 points,  4 beta functions with: 
                l(1) =   0
                l(2) =   0
                l(3) =   1
                l(4) =   1
     Q(r) pseudized with 0 coefficients 


     atomic species   valence    mass     pseudopotential
        Al             3.00    26.98200     Al( 1.00)

     48 Sym. Ops., with inversion, found



   Cartesian axes

     site n.     atom                  positions (alat units)
         1           Al  tau(   1) = (   0.0000000   0.0000000   0.0000000  )

     number of k points=    19  Methfessel-Paxton smearing, width (Ry)=  0.1000
                       cart. coord. in units 2pi/alat
        k(    1) = (  -0.1000000   0.1000000   0.1000000), wk =   0.0320000
        k(    2) = (  -0.3000000   0.3000000  -0.1000000), wk =   0.0960000
        k(    3) = (   0.5000000  -0.5000000   0.7000000), wk =   0.0960000
        k(    4) = (   0.3000000  -0.3000000   0.5000000), wk =   0.0960000
        k(    5) = (   0.1000000  -0.1000000   0.3000000), wk =   0.0960000
        k(    6) = (  -0.1000000   0.5000000   0.1000000), wk =   0.0960000
        k(    7) = (   0.7000000  -0.3000000   0.9000000), wk =   0.1920000
        k(    8) = (   0.5000000  -0.1000000   0.7000000), wk =   0.1920000
        k(    9) = (   0.3000000   0.1000000   0.5000000), wk =   0.1920000
        k(   10) = (  -0.1000000  -1.1000000   0.1000000), wk =   0.0960000
        k(   11) = (  -0.3000000  -0.9000000  -0.1000000), wk =   0.1920000
        k(   12) = (  -0.5000000  -0.7000000  -0.3000000), wk =   0.0960000
        k(   13) = (  -0.1000000  -0.7000000   0.1000000), wk =   0.0960000
        k(   14) = (  -0.3000000   0.3000000   0.3000000), wk =   0.0320000
        k(   15) = (   0.5000000  -0.5000000   1.1000000), wk =   0.0960000
        k(   16) = (   0.3000000  -0.3000000   0.9000000), wk =   0.0960000
        k(   17) = (  -0.3000000  -1.3000000   0.3000000), wk =   0.0960000
        k(   18) = (  -0.5000000  -1.1000000   0.1000000), wk =   0.0960000
        k(   19) = (   0.5000000  -0.5000000  -0.5000000), wk =   0.0160000

     Dense  grid:     3479 G-vectors     FFT dimensions: (  24,  24,  24)

     Estimated max dynamical RAM per process >       5.92 MB

     Initial potential from superposition of free atoms

     starting charge    2.99771, renormalised to    3.00000
     Starting wfcs are    4 randomized atomic wfcs +    2 random wfcs

     total cpu time spent up to now is        0.4 secs

     Self-consistent Calculation

     iteration #  1     ecut=    29.00 Ry     beta= 0.70
     Davidson diagonalization with overlap
     ethr =  1.00E-02,  avg # of iterations =  4.6

     Threshold (ethr) on eigenvalues was too large:
     Diagonalizing with lowered threshold

     Davidson diagonalization with overlap
     ethr =  1.76E-04,  avg # of iterations =  2.0

     total cpu time spent up to now is        0.7 secs

     total energy              =     -39.47091661 Ry
     Harris-Foulkes estimate   =     -39.47231562 Ry
     estimated scf accuracy    <       0.00513310 Ry

     iteration #  2     ecut=    29.00 Ry     beta= 0.70
     Davidson diagonalization with overlap
     ethr =  1.71E-04,  avg # of iterations =  1.0

     total cpu time spent up to now is        0.8 secs

     total energy              =     -39.47098475 Ry
     Harris-Foulkes estimate   =     -39.47104894 Ry
     estimated scf accuracy    <       0.00028590 Ry

     iteration #  3     ecut=    29.00 Ry     beta= 0.70
     Davidson diagonalization with overlap
     ethr =  9.53E-06,  avg # of iterations =  2.5

     total cpu time spent up to now is        0.9 secs

     End of self-consistent calculation

          k =-0.1000 0.1000 0.1000 (   429 PWs)   bands (ev):

    -4.0849  11.7087  13.5008  13.5008  15.7281  16.0321

          k =-0.3000 0.3000-0.1000 (   437 PWs)   bands (ev):

    -2.9768   7.7677  10.2476  13.6117  15.7593  16.3129

          k = 0.5000-0.5000 0.7000 (   433 PWs)   bands (ev):

    -0.2656   2.5536  10.1930  11.9520  13.9816  15.1730

          k = 0.3000-0.3000 0.5000 (   429 PWs)   bands (ev):

    -1.3339   4.1283  11.1184  11.3844  13.2460  16.4445

          k = 0.1000-0.1000 0.3000 (   439 PWs)   bands (ev):

    -3.5296   9.7695  11.6449  12.7755  14.3366  16.0696

          k =-0.1000 0.5000 0.1000 (   438 PWs)   bands (ev):

    -2.4242   8.2354  10.1836  10.5089  12.1174  13.9549

          k = 0.7000-0.3000 0.9000 (   434 PWs)   bands (ev):

    -0.2406   5.1493   7.4427   8.1768  13.2482  15.6531

          k = 0.5000-0.1000 0.7000 (   426 PWs)   bands (ev):

     0.8193   3.6012   6.2184   8.8657  14.2153  16.7513

          k = 0.3000 0.1000 0.5000 (   431 PWs)   bands (ev):

    -1.8764   6.2125   8.7542  11.2671  14.2544  16.2178

          k =-0.1000-1.1000 0.1000 (   439 PWs)   bands (ev):

     1.3865   4.0498   6.7687   8.7014  10.3128  12.3603

          k =-0.3000-0.9000-0.1000 (   433 PWs)   bands (ev):

     1.9031   4.2998   4.9834   7.3454  12.7420  15.2233

          k =-0.5000-0.7000-0.3000 (   430 PWs)   bands (ev):

     1.0361   1.7989   8.9499   9.6421  14.3410  15.1906

          k =-0.1000-0.7000 0.1000 (   436 PWs)   bands (ev):

    -0.7790   6.9175   7.5208   9.1970  10.8776  12.8800

          k =-0.3000 0.3000 0.3000 (   432 PWs)   bands (ev):

    -2.4269   5.7054  12.4507  12.4508  15.3892  15.5668

          k = 0.5000-0.5000 1.1000 (   429 PWs)   bands (ev):

    -0.7880   4.6473   7.2664  11.5616  13.5537  17.0384

          k = 0.3000-0.3000 0.9000 (   430 PWs)   bands (ev):

     2.1286   2.8204   5.2125   9.6781  11.4637  17.9929

          k =-0.3000-1.3000 0.3000 (   436 PWs)   bands (ev):

     0.2809   3.0779   8.2523  10.1642  12.0151  17.9079

          k =-0.5000-1.1000 0.1000 (   434 PWs)   bands (ev):

     2.6697   3.3231   5.3683   6.1774  15.7214  16.6218

          k = 0.5000-0.5000-0.5000 (   434 PWs)   bands (ev):

     0.4841   1.2752  12.3419  12.3420  14.2856  15.4759

     the Fermi energy is     4.3936 ev

!    total energy              =     -39.47102079 Ry
     Harris-Foulkes estimate   =     -39.47102164 Ry
     estimated scf accuracy    <       0.00000181 Ry

     total all-electron energy =      -485.613801 Ry

     The total energy is the sum of the following terms:

     one-electron contribution =       2.33354151 Ry
     hartree contribution      =       0.01720517 Ry
     xc contribution           =      -2.41356319 Ry
     ewald contribution        =      -4.74692194 Ry
     one-center paw contrib.   =     -34.66008103 Ry
     smearing contrib. (-TS)   =      -0.00120131 Ry

     convergence has been achieved in   3 iterations

     Writing output data file pwscf.save/

     init_run     :      0.18s CPU      0.19s WALL (       1 calls)
     electrons    :      0.45s CPU      0.46s WALL (       1 calls)

     Called by init_run:
     wfcinit      :      0.03s CPU      0.03s WALL (       1 calls)
     potinit      :      0.03s CPU      0.03s WALL (       1 calls)
     hinit0       :      0.12s CPU      0.12s WALL (       1 calls)

     Called by electrons:
     c_bands      :      0.30s CPU      0.31s WALL (       4 calls)
     sum_band     :      0.06s CPU      0.06s WALL (       4 calls)
     v_of_rho     :      0.01s CPU      0.02s WALL (       4 calls)
     newd         :      0.00s CPU      0.00s WALL (       4 calls)
     PAW_pot      :      0.09s CPU      0.10s WALL (       4 calls)
     mix_rho      :      0.00s CPU      0.00s WALL (       4 calls)

     Called by c_bands:
     init_us_2    :      0.01s CPU      0.01s WALL (     171 calls)
     cegterg      :      0.29s CPU      0.30s WALL (      76 calls)

     Called by sum_band:
     sum_band:bec :      0.00s CPU      0.00s WALL (      76 calls)
     addusdens    :      0.00s CPU      0.00s WALL (       4 calls)

     Called by *egterg:
     h_psi        :      0.27s CPU      0.28s WALL (     286 calls)
     s_psi        :      0.01s CPU      0.01s WALL (     286 calls)
     g_psi        :      0.00s CPU      0.00s WALL (     191 calls)
     cdiaghg      :      0.01s CPU      0.01s WALL (     248 calls)

     Called by h_psi:
     h_psi:pot    :      0.27s CPU      0.28s WALL (     286 calls)
     h_psi:calbec :      0.00s CPU      0.01s WALL (     286 calls)
     vloc_psi     :      0.25s CPU      0.26s WALL (     286 calls)
     add_vuspsi   :      0.01s CPU      0.01s WALL (     286 calls)

     General routines
     calbec       :      0.01s CPU      0.01s WALL (     362 calls)
     fft          :      0.01s CPU      0.01s WALL (      45 calls)
     ffts         :      0.00s CPU      0.00s WALL (       4 calls)
     fftw         :      0.28s CPU      0.28s WALL (    3054 calls)


     PWSCF        :      0.87s CPU      0.89s WALL


   This run was terminated on:  15: 9:30  10Nov2019            

=------------------------------------------------------------------------------=
   JOB DONE.
=------------------------------------------------------------------------------=
