
     Program PWSCF v.6.4.1 starts on 10Nov2019 at 15: 9:23 

     This program is part of the open-source Quantum ESPRESSO suite
     for quantum simulation of materials; please cite
         "P. Giannozzi et al., J. Phys.:Condens. Matter 21 395502 (2009);
         "P. Giannozzi et al., J. Phys.:Condens. Matter 29 465901 (2017);
          URL http://www.quantum-espresso.org", 
     in publications or presentations arising from this work. More details at
     http://www.quantum-espresso.org/quote

     Serial version
     Waiting for input...
     Reading input from standard input

     Current dimensions of program PWSCF are:
     Max number of different atomic species (ntypx) = 10
     Max number of k-points (npk) =  40000
     Max angular momentum in pseudopotentials (lmaxx) =  3
               file Al.pbe-nl-kjpaw_psl.1.0.0.UPF: wavefunction(s)  3S 3P renormalized

     G-vector sticks info
     --------------------
     sticks:   dense  smooth     PW     G-vecs:    dense   smooth      PW
     Sum         199     199     73                 1807     1807     411



     bravais-lattice index     =            2
     lattice parameter (alat)  =       6.9920  a.u.
     unit-cell volume          =      85.4558 (a.u.)^3
     number of atoms/cell      =            1
     number of atomic types    =            1
     number of electrons       =         3.00
     number of Kohn-Sham states=            6
     kinetic-energy cutoff     =      29.0000  Ry
     charge density cutoff     =     116.0000  Ry
     convergence threshold     =      1.0E-05
     mixing beta               =       0.7000
     number of iterations used =            8  plain     mixing
     Exchange-correlation      = SLA PW PBX PBC ( 1  4  3  4 0 0)

     celldm(1)=   6.991987  celldm(2)=   0.000000  celldm(3)=   0.000000
     celldm(4)=   0.000000  celldm(5)=   0.000000  celldm(6)=   0.000000

     crystal axes: (cart. coord. in units of alat)
               a(1) = (  -0.500000   0.000000   0.500000 )  
               a(2) = (   0.000000   0.500000   0.500000 )  
               a(3) = (  -0.500000   0.500000   0.000000 )  

     reciprocal axes: (cart. coord. in units 2 pi/alat)
               b(1) = ( -1.000000 -1.000000  1.000000 )  
               b(2) = (  1.000000  1.000000  1.000000 )  
               b(3) = ( -1.000000  1.000000 -1.000000 )  


     PseudoPot. # 1 for Al read from file:
     ./Al.pbe-nl-kjpaw_psl.1.0.0.UPF
     MD5 check sum: 8cf6d98cc7ef3f4b729b574060f3a10f
     Pseudo is Projector augmented-wave + core cor, Zval =  3.0
     Generated using "atomic" code by A. Dal Corso v.6.3
     Shape of augmentation charge: PSQ
     Using radial grid of 1135 points,  4 beta functions with: 
                l(1) =   0
                l(2) =   0
                l(3) =   1
                l(4) =   1
     Q(r) pseudized with 0 coefficients 


     atomic species   valence    mass     pseudopotential
        Al             3.00    26.98200     Al( 1.00)

     48 Sym. Ops., with inversion, found



   Cartesian axes

     site n.     atom                  positions (alat units)
         1           Al  tau(   1) = (   0.0000000   0.0000000   0.0000000  )

     number of k points=    19  Methfessel-Paxton smearing, width (Ry)=  0.1000
                       cart. coord. in units 2pi/alat
        k(    1) = (  -0.1000000   0.1000000   0.1000000), wk =   0.0320000
        k(    2) = (  -0.3000000   0.3000000  -0.1000000), wk =   0.0960000
        k(    3) = (   0.5000000  -0.5000000   0.7000000), wk =   0.0960000
        k(    4) = (   0.3000000  -0.3000000   0.5000000), wk =   0.0960000
        k(    5) = (   0.1000000  -0.1000000   0.3000000), wk =   0.0960000
        k(    6) = (  -0.1000000   0.5000000   0.1000000), wk =   0.0960000
        k(    7) = (   0.7000000  -0.3000000   0.9000000), wk =   0.1920000
        k(    8) = (   0.5000000  -0.1000000   0.7000000), wk =   0.1920000
        k(    9) = (   0.3000000   0.1000000   0.5000000), wk =   0.1920000
        k(   10) = (  -0.1000000  -1.1000000   0.1000000), wk =   0.0960000
        k(   11) = (  -0.3000000  -0.9000000  -0.1000000), wk =   0.1920000
        k(   12) = (  -0.5000000  -0.7000000  -0.3000000), wk =   0.0960000
        k(   13) = (  -0.1000000  -0.7000000   0.1000000), wk =   0.0960000
        k(   14) = (  -0.3000000   0.3000000   0.3000000), wk =   0.0320000
        k(   15) = (   0.5000000  -0.5000000   1.1000000), wk =   0.0960000
        k(   16) = (   0.3000000  -0.3000000   0.9000000), wk =   0.0960000
        k(   17) = (  -0.3000000  -1.3000000   0.3000000), wk =   0.0960000
        k(   18) = (  -0.5000000  -1.1000000   0.1000000), wk =   0.0960000
        k(   19) = (   0.5000000  -0.5000000  -0.5000000), wk =   0.0160000

     Dense  grid:     1807 G-vectors     FFT dimensions: (  18,  18,  18)

     Estimated max dynamical RAM per process >       3.08 MB

     Initial potential from superposition of free atoms

     starting charge    2.99771, renormalised to    3.00000
     Starting wfcs are    4 randomized atomic wfcs +    2 random wfcs

     total cpu time spent up to now is        0.4 secs

     Self-consistent Calculation

     iteration #  1     ecut=    29.00 Ry     beta= 0.70
     Davidson diagonalization with overlap
     ethr =  1.00E-02,  avg # of iterations =  4.7

     Threshold (ethr) on eigenvalues was too large:
     Diagonalizing with lowered threshold

     Davidson diagonalization with overlap
     ethr =  1.83E-04,  avg # of iterations =  2.0

     total cpu time spent up to now is        0.5 secs

     total energy              =     -39.47524596 Ry
     Harris-Foulkes estimate   =     -39.47682812 Ry
     estimated scf accuracy    <       0.00546644 Ry

     iteration #  2     ecut=    29.00 Ry     beta= 0.70
     Davidson diagonalization with overlap
     ethr =  1.82E-04,  avg # of iterations =  1.0

     total cpu time spent up to now is        0.6 secs

     total energy              =     -39.47518633 Ry
     Harris-Foulkes estimate   =     -39.47530068 Ry
     estimated scf accuracy    <       0.00042710 Ry

     iteration #  3     ecut=    29.00 Ry     beta= 0.70
     Davidson diagonalization with overlap
     ethr =  1.42E-05,  avg # of iterations =  1.4

     total cpu time spent up to now is        0.7 secs

     End of self-consistent calculation

          k =-0.1000 0.1000 0.1000 (   232 PWs)   bands (ev):

    -1.8448  21.7052  24.6967  24.6968  28.7410  29.7981

          k =-0.3000 0.3000-0.1000 (   223 PWs)   bands (ev):

    -0.1362  15.8002  20.1895  26.0580  26.9125  28.8028

          k = 0.5000-0.5000 0.7000 (   228 PWs)   bands (ev):

     4.0022   8.1560  20.0216  22.9929  25.3918  26.9089

          k = 0.3000-0.3000 0.5000 (   228 PWs)   bands (ev):

     2.3743  10.5038  21.6261  21.8311  24.1499  28.9873

          k = 0.1000-0.1000 0.3000 (   224 PWs)   bands (ev):

    -0.9870  18.7703  22.2707  23.5058  26.5911  28.5875

          k =-0.1000 0.5000 0.1000 (   226 PWs)   bands (ev):

     0.7080  16.4378  20.2420  20.3165  21.9266  26.7536

          k = 0.7000-0.3000 0.9000 (   226 PWs)   bands (ev):

     4.0110  11.8763  15.5625  17.4694  24.0612  28.9816

          k = 0.5000-0.1000 0.7000 (   228 PWs)   bands (ev):

     5.6076   9.5822  14.0564  18.2361  26.0047  29.2487

          k = 0.3000 0.1000 0.5000 (   225 PWs)   bands (ev):

     1.5450  13.4692  17.9287  21.7880  25.4715  29.4860

          k =-0.1000-1.1000 0.1000 (   223 PWs)   bands (ev):

     6.3516  10.7036  14.1892  18.1931  19.2608  24.5913

          k =-0.3000-0.9000-0.1000 (   223 PWs)   bands (ev):

     7.1237  10.7353  11.9436  16.1617  23.3165  28.3376

          k =-0.5000-0.7000-0.3000 (   228 PWs)   bands (ev):

     6.0108   6.9626  17.9139  19.4944  26.5684  26.7055

          k =-0.1000-0.7000 0.1000 (   224 PWs)   bands (ev):

     3.1968  14.6432  15.5566  18.8756  20.0910  25.3439

          k =-0.3000 0.3000 0.3000 (   229 PWs)   bands (ev):

     0.7078  12.8505  23.6497  23.6497  27.5642  27.7430

          k = 0.5000-0.5000 1.1000 (   223 PWs)   bands (ev):

     3.1972  11.1420  15.7162  22.3862  24.8032  29.4680

          k = 0.3000-0.3000 0.9000 (   225 PWs)   bands (ev):

     7.5699   8.3993  12.5865  19.5830  21.5641  32.0566

          k =-0.3000-1.3000 0.3000 (   231 PWs)   bands (ev):

     4.8071   8.9258  16.9727  20.2628  22.4174  31.1184

          k =-0.5000-1.1000 0.1000 (   226 PWs)   bands (ev):

     8.3463   9.0625  12.3943  14.7271  28.5510  28.6805

          k = 0.5000-0.5000-0.5000 (   228 PWs)   bands (ev):

     5.2299   6.1585  23.7158  23.7158  25.4949  25.4949

     the Fermi energy is    10.9515 ev

!    total energy              =     -39.47519682 Ry
     Harris-Foulkes estimate   =     -39.47519686 Ry
     estimated scf accuracy    <       0.00000118 Ry

     total all-electron energy =      -485.617977 Ry

     The total energy is the sum of the following terms:

     one-electron contribution =       3.87105743 Ry
     hartree contribution      =       0.01072529 Ry
     xc contribution           =      -2.74506918 Ry
     ewald contribution        =      -5.90157862 Ry
     one-center paw contrib.   =     -34.70914839 Ry
     smearing contrib. (-TS)   =      -0.00118335 Ry

     convergence has been achieved in   3 iterations

     Writing output data file pwscf.save/

     init_run     :      0.15s CPU      0.15s WALL (       1 calls)
     electrons    :      0.28s CPU      0.28s WALL (       1 calls)

     Called by init_run:
     wfcinit      :      0.02s CPU      0.02s WALL (       1 calls)
     potinit      :      0.02s CPU      0.03s WALL (       1 calls)
     hinit0       :      0.11s CPU      0.11s WALL (       1 calls)

     Called by electrons:
     c_bands      :      0.16s CPU      0.17s WALL (       4 calls)
     sum_band     :      0.03s CPU      0.03s WALL (       4 calls)
     v_of_rho     :      0.01s CPU      0.01s WALL (       4 calls)
     newd         :      0.00s CPU      0.00s WALL (       4 calls)
     PAW_pot      :      0.09s CPU      0.10s WALL (       4 calls)
     mix_rho      :      0.00s CPU      0.00s WALL (       4 calls)

     Called by c_bands:
     init_us_2    :      0.01s CPU      0.01s WALL (     171 calls)
     cegterg      :      0.16s CPU      0.16s WALL (      76 calls)

     Called by sum_band:
     sum_band:bec :      0.00s CPU      0.00s WALL (      76 calls)
     addusdens    :      0.00s CPU      0.00s WALL (       4 calls)

     Called by *egterg:
     h_psi        :      0.14s CPU      0.15s WALL (     268 calls)
     s_psi        :      0.00s CPU      0.00s WALL (     268 calls)
     g_psi        :      0.00s CPU      0.00s WALL (     173 calls)
     cdiaghg      :      0.01s CPU      0.01s WALL (     230 calls)

     Called by h_psi:
     h_psi:pot    :      0.14s CPU      0.15s WALL (     268 calls)
     h_psi:calbec :      0.00s CPU      0.00s WALL (     268 calls)
     vloc_psi     :      0.13s CPU      0.14s WALL (     268 calls)
     add_vuspsi   :      0.00s CPU      0.00s WALL (     268 calls)

     General routines
     calbec       :      0.00s CPU      0.00s WALL (     344 calls)
     fft          :      0.00s CPU      0.00s WALL (      45 calls)
     ffts         :      0.00s CPU      0.00s WALL (       4 calls)
     fftw         :      0.15s CPU      0.15s WALL (    3078 calls)


     PWSCF        :      0.66s CPU      0.68s WALL


   This run was terminated on:  15: 9:23  10Nov2019            

=------------------------------------------------------------------------------=
   JOB DONE.
=------------------------------------------------------------------------------=
